[gd_scene load_steps=4 format=2]

[ext_resource path="res://src/pieces/Piece.tscn" type="PackedScene" id=1]
[ext_resource path="res://assets/export/rook.png" type="Texture" id=2]
[ext_resource path="res://src/pieces/Rook.gd" type="Script" id=3]

[node name="Rook" instance=ExtResource( 1 )]
script = ExtResource( 3 )

[node name="Body" parent="." index="0"]
texture = ExtResource( 2 )
