[gd_resource type="DynamicFont" load_steps=2 format=2]

[ext_resource path="res://assets/source/Bitstream Vera Sans Mono Bold Nerd Font Complete.ttf" type="DynamicFontData" id=1]

[resource]
size = 32
font_data = ExtResource( 1 )
